Arbuscular mycorrhizal fungi colonization
…
To load data in, use the follow command:

readData

0.0.2.1 Example

# Grid
f <- dir(system.file("extdata", package = "Ramf"), full.names = TRUE, pattern = "grid.csv")
gr <- readData(f)
# Trouvelot
f <- dir(system.file("extdata", package = "Ramf"), full.names = TRUE, pattern = "trouvelot.csv")
tr <- readData(f) 
tr

## # A tibble: 1,008 x 3
##    scoring replicates samples
##      <chr>      <chr>   <chr>
##  1     1A3          A  Lys 11
##  2     5A3          A  Lys 11
##  3     0A0          A  Lys 11
##  4     0A0          A  Lys 11
##  5     0A0          A  Lys 11
##  6     0A0          A  Lys 11
##  7     5A3          A  Lys 11
##  8     0A0          A  Lys 11
##  9     0A0          A  Lys 11
## 10     0A0          A  Lys 11
## # ... with 998 more rows
…
